{
  "project_info": {
    "project_number": "12542964015",
    "firebase_url": "https://payitforward-deeca.firebaseio.com",
    "project_id": "payitforward-deeca",
    "storage_bucket": "payitforward-deeca.appspot.com"
  },
  "client": [
    {
      "client_info": {
        "mobilesdk_app_id": "1:12542964015:android:da8d2f2a2cc0a890",
        "android_client_info": {
          "package_name": "com.inearth.howcanihelpyou"
        }
      },
      "oauth_client": [
        {
          "client_id": "12542964015-d67tqqfts3m48uodbq9e5us80nst0sta.apps.googleusercontent.com",
          "client_type": 3
        }
      ],
      "api_key": [
        {
          "current_key": "AIzaSyDvPmYsYFiBpuDW9lFaWjfSkpzqiZAg_W0"
        }
      ],
      "services": {
        "analytics_service": {
          "status": 1
        },
        "appinvite_service": {
          "status": 1,
          "other_platform_oauth_client": []
        },
        "ads_service": {
          "status": 2
        }
      }
    }
  ],
  "configuration_version": "1"
}